1,1,1,1,1,1,1,1,1,1,1,1,1,1,1
30,0,0,0,0,0,0,0,0,0,0,0,0,0,31
30,0,0,0,0,0,0,0,0,0,0,0,0,0,31
30,0,0,0,0,0,0,0,0,0,0,0,0,0,31
1,0,0,0,0,0,0,0,0,0,0,0,0,0,1
1,0,0,1,2,2,2,2,2,2,2,2,2,2,1
1,0,0,1,2,2,2,2,2,2,2,2,2,2,1
1,1,33,1,1,1,1,1,1,1,1,1,1,1,1
