0,1,32,1,0,0,0,0,0,0,1,1,0,0,31
0,0,0,0,0,0,0,0,0,0,0,1,0,0,31
0,0,0,0,0,0,0,0,0,0,0,0,0,0,31
0,0,0,0,0,0,0,0,0,0,0,0,0,0,31
0,0,0,0,1,0,0,0,0,0,0,0,0,0,31
0,0,0,1,1,0,0,0,0,0,0,0,0,0,31
2,2,2,2,2,2,2,2,2,2,2,2,2,2,2
2,2,2,2,2,2,2,2,2,2,2,2,2,2,2
